{
  "variables": {
    "ansible_host": "swift",
    "ansible_connection": "docker"
  },
  "builders": [
    {
      "type": "docker",
      "image": "phusion/baseimage:latest",
      "commit": "true",
      "changes": [
        "ENV DEBIAN_FRONTEND noninteractive",
        "CMD /usr/bin/swift"
      ],
      "run_command": [
        "-d",
        "-i",
        "-t",
        "--name",
        "{{ user `ansible_host` }}",
        "{{ .Image }}",
        "/bin/bash"
      ]
    }
  ],
  "provisioners": [
    {
      "type": "shell",
      "inline": [
        "apt update",
        "apt install -yq python"
      ]
    },
    {
      "type": "ansible",
      "user": "root",
      "playbook_file": "playbook.yaml",
      "extra_arguments": [
        "--extra-vars",
        "ansible_host={{ user `ansible_host` }} ansible_connection={{ user `ansible_connection` }}"
      ]
    },
    {
      "type": "shell",
      "inline": [
        "apt clean",
        "rm -rf /var/lib/apt/lists/* /var/tmp/* /tmp/*"
      ]
    }
  ],
  "post-processors": [
    [
      {
        "type": "docker-tag",
        "repository": "sanselme/swift",
        "tag": "3.1.1"
      }
    ]
  ]
}
